{
  "@context": "https://doi.org/10.5063/schema/codemeta-2.0",
  "@type": "SoftwareSourceCode",
  "identifier": "rOPTRAM",
  "description": "The OPtical TRapezoid Model (OPTRAM) derives soil moisture based on the linear relation between a vegetation index and Land Surface Temperature (LST). The Short Wave Infra-red (SWIR) band is used as a proxy for LST. See: Sadeghi, M., Babaeian, E., Tuller, M., Jones, S.B., 2017. The optical trapezoid model: A novel approach to remote sensing of soil moisture applied to Sentinel-2 and Landsat-8 observations. Remote Sensing of Environment 198, 52–68, https://doi.org/10.1016/j.rse.2017.05.041 .",
  "name": "rOPTRAM: Derive soil moisture using the OPTRAM algorithm",
  "codeRepository": "https://gitlab.com/rsl-bidr/roptram.git",
  "issueTracker": "https://gitlab.com/rsl-bidr/",
  "license": "https://spdx.org/licenses/GPL-3.0",
  "version": "0.0.0.9000",
  "programmingLanguage": {
    "@type": "ComputerLanguage",
    "name": "R",
    "url": "https://r-project.org"
  },
  "runtimePlatform": "R version 4.2.2 (2022-10-31)",
  "author": [
    {
      "@type": "Person",
      "givenName": "Micha",
      "familyName": "Silver",
      "email": "silverm@post.bgu.ac.il",
      "@id": "https://orcid.org/0000-0002-1128-1325"
    }
  ],
  "maintainer": [
    {
      "@type": "Person",
      "givenName": "Micha",
      "familyName": "Silver",
      "email": "silverm@post.bgu.ac.il",
      "@id": "https://orcid.org/0000-0002-1128-1325"
    }
  ],
  "softwareSuggestions": [
    {
      "@type": "SoftwareApplication",
      "identifier": "sen2r",
      "name": "sen2r",
      "provider": {
        "@id": "https://cran.r-project.org",
        "@type": "Organization",
        "name": "Comprehensive R Archive Network (CRAN)",
        "url": "https://cran.r-project.org"
      },
      "sameAs": "https://CRAN.R-project.org/package=sen2r"
    },
    {
      "@type": "SoftwareApplication",
      "identifier": "testthat",
      "name": "testthat",
      "version": ">= 3.0.0",
      "provider": {
        "@id": "https://cran.r-project.org",
        "@type": "Organization",
        "name": "Comprehensive R Archive Network (CRAN)",
        "url": "https://cran.r-project.org"
      },
      "sameAs": "https://CRAN.R-project.org/package=testthat"
    }
  ],
  "softwareRequirements": {
    "1": {
      "@type": "SoftwareApplication",
      "identifier": "ggplot2",
      "name": "ggplot2",
      "provider": {
        "@id": "https://cran.r-project.org",
        "@type": "Organization",
        "name": "Comprehensive R Archive Network (CRAN)",
        "url": "https://cran.r-project.org"
      },
      "sameAs": "https://CRAN.R-project.org/package=ggplot2"
    },
    "2": {
      "@type": "SoftwareApplication",
      "identifier": "stats",
      "name": "stats"
    },
    "3": {
      "@type": "SoftwareApplication",
      "identifier": "terra",
      "name": "terra",
      "provider": {
        "@id": "https://cran.r-project.org",
        "@type": "Organization",
        "name": "Comprehensive R Archive Network (CRAN)",
        "url": "https://cran.r-project.org"
      },
      "sameAs": "https://CRAN.R-project.org/package=terra"
    },
    "4": {
      "@type": "SoftwareApplication",
      "identifier": "utils",
      "name": "utils"
    },
    "5": {
      "@type": "SoftwareApplication",
      "identifier": "dplyr",
      "name": "dplyr",
      "provider": {
        "@id": "https://cran.r-project.org",
        "@type": "Organization",
        "name": "Comprehensive R Archive Network (CRAN)",
        "url": "https://cran.r-project.org"
      },
      "sameAs": "https://CRAN.R-project.org/package=dplyr"
    },
    "6": {
      "@type": "SoftwareApplication",
      "identifier": "tools",
      "name": "tools"
    },
    "SystemRequirements": null
  },
  "fileSize": "153.366KB"
}
